…
## Variable impacts (multiplicative worth)


``` r
coef_tbl <- read_csv(file.path(art, "coefficients.csv"), show_col_types = FALSE)
coef_tbl %>% arrange(desc(abs(estimate)))
```

```
## # A tibble: 114 × 3
##    term                                 estimate worth_multiplier
##    <chr>                                   <dbl>            <dbl>
##  1 celebrity_industryMagician             -1.32             0.266
##  2 celebrity_industryBeauty Pagent        -1.04             0.354
##  3 celebrity_industryJournalist           -0.700            0.497
##  4 celebrity_industryMusician              0.677            1.97 
##  5 celebrity_industryPolitician           -0.611            0.543
##  6 celebrity_industryModel                -0.592            0.553
##  7 (Intercept)                             0.548            1.73 
##  8 celebrity_industrySports Broadcaster   -0.527            0.590
##  9 celebrity_industryRadio Personality    -0.470            0.625
## 10 celebrity_industryComedian             -0.398            0.672
## # ℹ 104 more rows
```
…
